[{
        "id": 1,
        "name": "dashboard",
        "caption": "Dashboard",
        "is_link": 0,
        "icon": "",
        "children": []
    },
    {
        "id": 2,
        "name": "master",
        "caption": "Master",
        "is_link": 1,
        "icon": "",
        "children": [{
            "id": 4,
            "name": "title",
            "caption": "Title",
            "is_link": 0,
            "icon": "",
            "children": []
        }, {
            "id": 5,
            "name": "country",
            "caption": "Country",
            "is_link": 0,
            "icon": "",
            "children": []
        }, {
            "id": 6,
            "name": "state",
            "caption": "State",
            "is_link": 0,
            "icon": "",
            "children": []
        }, {
            "id": 7,
            "name": "city",
            "caption": "City",
            "is_link": 0,
            "icon": "",
            "children": []
        }]
    }, {
        "id": 3,
        "name": "title",
        "caption": "User Management",
        "is_link": 1,
        "icon": "",
        "children": [{
            "id": 8,
            "name": "role",
            "caption": "Role Master",
            "is_link": 0,
            "icon": "",
            "children": []
        }, {
            "id": 9,
            "name": "role-link",
            "caption": "Role Link Master",
            "is_link": 0,
            "icon": "",
            "children": []
        }, {
            "id": 10,
            "name": "assign-role",
            "caption": "Assign Role",
            "is_link": 0,
            "icon": "",
            "children": []
        }]
    }
]